tp/flipflop/waves.vcd
$date
     Dec 14, 2015       15:29:13
$end

$version
 SystemC 2.3.1-Accellera --- Jun 18 2015 16:41:46
$end

$timescale
     1 ns
$end

$scope module SystemC $end
$var wire    1  aaaaa  clk       $end
$var wire    1  aaaab  d       $end
$var wire    1  aaaac  rst       $end
$var wire    1  aaaad  out1       $end
$var wire    1  aaaae  out2       $end
$upscope $end
$enddefinitions  $end

$comment
All initial values are dumped below at time 0 sec = 0 timescale units.
$end

$dumpvars
0aaaaa
0aaaab
1aaaac
0aaaad
1aaaae
$end

#10
1aaaaa
1aaaab

#15
0aaaaa

#20
1aaaaa
0aaaac
1aaaad
0aaaae

#25
0aaaaa

#30
1aaaaa

#35
0aaaaa

#40
1aaaaa
0aaaab

#45
0aaaaa

#50
1aaaaa
0aaaad
1aaaae

#55
0aaaaa

#60
1aaaaa
1aaaab

#65
0aaaaa

#70
1aaaaa
1aaaad
0aaaae

#75
0aaaaa

#80
1aaaaa
0aaaab
1aaaac
0aaaad
1aaaae

#85
0aaaaa

#90
1aaaaa
0aaaac

