tp2/sysc/trace.vcd
$date
     Dec 17, 2015       12:11:05
$end

$version
 SystemC 2.3.1-Accellera --- Jun 18 2015 16:41:46
$end

$timescale
     1 ns
$end

$scope module SystemC $end
$var wire    1  aaaaa  clk       $end
$var real    1  aaaab  top.fifo_in_0       $end
$var real    1  aaaac  top.fifo_in_1       $end
$var real    1  aaaad  top.fifo_in_2       $end
$var real    1  aaaae  top.fifo_in_3       $end
$var real    1  aaaaf  top.fifo_in_4       $end
$var real    1  aaaag  top.fifo_in_5       $end
$var real    1  aaaah  top.fifo_in_6       $end
$var real    1  aaaai  top.fifo_in_7       $end
$var real    1  aaaaj  top.fifo_in_8       $end
$var real    1  aaaak  top.fifo_in_9       $end
$var real    1  aaaal  top.fifo_in_10       $end
$var real    1  aaaam  top.fifo_in_11       $end
$var real    1  aaaan  top.fifo_in_12       $end
$var real    1  aaaao  top.fifo_in_13       $end
$var real    1  aaaap  top.fifo_in_14       $end
$var real    1  aaaaq  top.fifo_in_15       $end
$var real    1  aaaar  top.fifo_out_0       $end
$var real    1  aaaas  top.fifo_out_1       $end
$var real    1  aaaat  top.fifo_out_2       $end
$var real    1  aaaau  top.fifo_out_3       $end
$var real    1  aaaav  top.fifo_out_4       $end
$var real    1  aaaaw  top.fifo_out_5       $end
$var real    1  aaaax  top.fifo_out_6       $end
$var real    1  aaaay  top.fifo_out_7       $end
$var real    1  aaaaz  top.fifo_out_8       $end
$var real    1  aaaba  top.fifo_out_9       $end
$var real    1  aaabb  top.fifo_out_10       $end
$var real    1  aaabc  top.fifo_out_11       $end
$var real    1  aaabd  top.fifo_out_12       $end
$var real    1  aaabe  top.fifo_out_13       $end
$var real    1  aaabf  top.fifo_out_14       $end
$var real    1  aaabg  top.fifo_out_15       $end
$upscope $end
$enddefinitions  $end

$comment
All initial values are dumped below at time 0 sec = 0 timescale units.
$end

$dumpvars
0aaaaa
r0 aaaab
r0 aaaac
r5.885453550164232e-44 aaaad
r0 aaaae
r-nan aaaaf
r0 aaaag
r3.559244355763391e-17 aaaah
r1.875449479444006e+28 aaaai
r6.594295324105558e+22 aaaaj
r7.555081327053433e+31 aaaak
r3.559244355763391e-17 aaaal
r4.899718016227296e+30 aaaam
r1.653395558070485e+19 aaaan
r1.775379936370433e+28 aaaao
r1.625506218616788e-43 aaaap
r0 aaaaq
r9.999127742811594e-38 aaaar
r0 aaaas
r5.885453550164232e-44 aaaat
r0 aaaau
r-nan aaaav
r0 aaaaw
r3.559244355763391e-17 aaaax
r1.875449479444006e+28 aaaay
r6.594295324105558e+22 aaaaz
r7.555081327053433e+31 aaaba
r3.559244355763391e-17 aaabb
r4.899718016227296e+30 aaabc
r1.653395558070485e+19 aaabd
r1.775379936370433e+28 aaabe
r1.625506218616788e-43 aaabf
r0 aaabg
$end

#10
1aaaaa
r-nan aaaaf
r-nan aaaav

#15
0aaaaa
r-nan aaaaf
r-nan aaaav

#20
1aaaaa
r0 aaaad
r-nan aaaaf
r-nan aaaav

#25
0aaaaa
r-nan aaaaf
r-nan aaaav

#30
1aaaaa
r-nan aaaaf
r-nan aaaav

#35
0aaaaa
r-nan aaaaf
r-nan aaaav

#40
1aaaaa
r0 aaaaf
r-nan aaaav

#45
0aaaaa
r-nan aaaav

#50
1aaaaa
r-nan aaaav

#55
0aaaaa
r-nan aaaav

#60
1aaaaa
r0 aaaah
r-nan aaaav

#65
0aaaaa
r-nan aaaav

#70
1aaaaa
r0 aaaai
r-nan aaaav

#75
0aaaaa
r-nan aaaav

#80
1aaaaa
r0 aaaaj
r-nan aaaav

#85
0aaaaa
r-nan aaaav

#90
1aaaaa
r0 aaaak
r-nan aaaav

#95
0aaaaa
r-nan aaaav

#100
1aaaaa
r0 aaaal
r-nan aaaav

#105
0aaaaa
r-nan aaaav

#110
1aaaaa
r0 aaaam
r-nan aaaav

#115
0aaaaa
r-nan aaaav

#120
1aaaaa
r0 aaaan
r-nan aaaav

#125
0aaaaa
r-nan aaaav

#130
1aaaaa
r0 aaaao
r-nan aaaav

#135
0aaaaa
r-nan aaaav

#140
1aaaaa
r0 aaaap
r-nan aaaav

#145
0aaaaa
r-nan aaaav

#150
1aaaaa
r-nan aaaav

#155
0aaaaa
r-nan aaaav

#160
1aaaaa
r1 aaaab
r0 aaaar
r16088 aaaas
r0 aaaat
r0 aaaav
r0 aaaax
r0 aaaay
r0 aaaaz
r0 aaaba
r0 aaabb
r0 aaabc
r0 aaabd
r0 aaabe
r0 aaabf

#165
0aaaaa

#170
1aaaaa
r0 aaaab
r0 aaaas

#175
0aaaaa

#180
1aaaaa

#185
0aaaaa

#190
1aaaaa

#195
0aaaaa

#200
1aaaaa

#205
0aaaaa

#210
1aaaaa

#215
0aaaaa

#220
1aaaaa

#225
0aaaaa

#230
1aaaaa

#235
0aaaaa

#240
1aaaaa

#245
0aaaaa

#250
1aaaaa

#255
0aaaaa

#260
1aaaaa

#265
0aaaaa

#270
1aaaaa

#275
0aaaaa

#280
1aaaaa

#285
0aaaaa

#290
1aaaaa

#295
0aaaaa

#300
1aaaaa

#305
0aaaaa

#310
1aaaaa

#315
0aaaaa

#320
1aaaaa
r1 aaaas
r1 aaaat
r1 aaaau
r1 aaaav
r1 aaaaw
r1 aaaax
r1 aaaay
r1 aaaaz
r1 aaaba
r1 aaabb
r1 aaabc
r1 aaabd
r1 aaabe
r1 aaabf
r1 aaabg

#325
0aaaaa

#330
1aaaaa
r0 aaaas

#335
0aaaaa

#340
1aaaaa
r0 aaaat

#345
0aaaaa

#350
1aaaaa
r0 aaaau

#355
0aaaaa

#360
1aaaaa
r0 aaaav

#365
0aaaaa

#370
1aaaaa
r0 aaaaw

#375
0aaaaa

#380
1aaaaa
r0 aaaax

#385
0aaaaa

#390
1aaaaa
r0 aaaay

#395
0aaaaa

#400
1aaaaa
r0 aaaaz

#405
0aaaaa

#410
1aaaaa
r0 aaaba

#415
0aaaaa

#420
1aaaaa
r0 aaabb

#425
0aaaaa

#430
1aaaaa
r0 aaabc

#435
0aaaaa

#440
1aaaaa
r0 aaabd

#445
0aaaaa

#450
1aaaaa
r0 aaabe

#455
0aaaaa

#460
1aaaaa
r0 aaabf

#465
0aaaaa

#470
1aaaaa
r0 aaabg

#475
0aaaaa

#480
1aaaaa
r123 aaaab
r-768 aaaas
r1449.98388671875 aaaat
r-443.5432739257812 aaaau
r768 aaaav
r672 aaaaw
r297.9840087890625 aaaax
r916.7208251953125 aaaay
r768 aaaba
r-297.9839477539062 aaabb
r659.5432739257812 aaabc
r-768 aaabd
r672 aaabe
r-1449.984008789062 aaabf
r1171.279174804688 aaabg

#485
0aaaaa

#490
1aaaaa
r0 aaaab
r0 aaaas

#495
0aaaaa

#500
1aaaaa
r0 aaaat

#505
0aaaaa

#510
1aaaaa
r0 aaaau

#515
0aaaaa

#520
1aaaaa
r0 aaaav

#525
0aaaaa

#530
1aaaaa
r0 aaaaw

#535
0aaaaa

#540
1aaaaa
r0 aaaax

#545
0aaaaa

#550
1aaaaa
r0 aaaay

#555
0aaaaa

#560
1aaaaa

#565
0aaaaa

#570
1aaaaa
r0 aaaba

#575
0aaaaa

#580
1aaaaa
r0 aaabb

#585
0aaaaa

#590
1aaaaa
r0 aaabc

#595
0aaaaa

#600
1aaaaa
r0 aaabd

#605
0aaaaa

#610
1aaaaa
r0 aaabe

#615
0aaaaa

#620
1aaaaa
r0 aaabf

#625
0aaaaa

#630
1aaaaa
r0 aaabg

#635
0aaaaa

#640
1aaaaa
r2528 aaaas
r-1097.699096679688 aaaat
r-397.3121948242188 aaaau
r123 aaaav
r-431 aaaaw
r157.68359375 aaaax
r-92.23699951171875 aaaay
r32 aaaaz
r18 aaaba
r-222.3009033203125 aaabb
r-36.68778991699219 aaabc
r125 aaabd
r-655 aaabe
r1474.31640625 aaabf
r-701.7630004882812 aaabg

#645
0aaaaa

#650
1aaaaa
r0 aaaas

#655
0aaaaa

#660
1aaaaa
r0 aaaat

#665
0aaaaa

#670
1aaaaa
r0 aaaau

#675
0aaaaa

#680
1aaaaa
r0 aaaav

#685
0aaaaa

#690
1aaaaa
r0 aaaaw

#695
0aaaaa

#700
1aaaaa
r0 aaaax

#705
0aaaaa

#710
1aaaaa
r0 aaaay

#715
0aaaaa

#720
1aaaaa
r0 aaaaz

#725
0aaaaa

#730
1aaaaa
r0 aaaba

#735
0aaaaa

#740
1aaaaa
r0 aaabb

#745
0aaaaa

#750
1aaaaa
r0 aaabc

#755
0aaaaa

#760
1aaaaa
r0 aaabd

#765
0aaaaa

#770
1aaaaa
r0 aaabe

#775
0aaaaa

#780
1aaaaa
r0 aaabf

#785
0aaaaa

#790
1aaaaa
r0 aaabg

